project1
…
# saves data only once (not each time you knit a R Markdown)
if (!file.exists(here("data", "chocolate.RDS"))) {
    url_csv <- "https://raw.githubusercontent.com/rfordatascience/tidytuesday/master/data/2022/2022-01-18/chocolate.csv"
    chocolate <- readr::read_csv(url_csv)
    
    # save the file to RDS objects
    saveRDS(chocolate, file = here("data", "chocolate.RDS"))
}

chocolate <- readRDS(here("data", "chocolate.RDS"))
as_tibble(chocolate)

# A tibble: 2,530 × 10
     ref company_manufacturer company_location review_date
   <dbl> <chr>                <chr>                  <dbl>
 1  2454 5150                 U.S.A.                  2019
 2  2458 5150                 U.S.A.                  2019
 3  2454 5150                 U.S.A.                  2019
 4  2542 5150                 U.S.A.                  2021
 5  2546 5150                 U.S.A.                  2021
 6  2546 5150                 U.S.A.                  2021
 7  2542 5150                 U.S.A.                  2021
 8   797 A. Morin             France                  2012
 9   797 A. Morin             France                  2012
10  1011 A. Morin             France                  2013
# ℹ 2,520 more rows
# ℹ 6 more variables: country_of_bean_origin <chr>,
#   specific_bean_origin_or_bar_name <chr>, cocoa_percent <chr>,
#   ingredients <chr>, most_memorable_characteristics <chr>, rating <dbl>
…
#2 Consider the countries where the beans originated from. How many reviews come from each country of bean origin?

origin<-select(chocolate, country_of_bean_origin,rating) 

chocolate.o <- group_by(origin,country_of_bean_origin)

chocolate.o %>% group_by(country_of_bean_origin) %>% count()

# A tibble: 62 × 2
# Groups:   country_of_bean_origin [62]
   country_of_bean_origin     n
   <chr>                  <int>
 1 Australia                  3
 2 Belize                    76
 3 Blend                    156
 4 Bolivia                   80
 5 Brazil                    78
 6 Burma                      1
 7 Cameroon                   3
 8 China                      1
 9 Colombia                  79
10 Congo                     11
# ℹ 52 more rows
…
company.reviews<-select(chocolate, company_location,country_of_bean_origin,rating)

company.ecuador<-filter(company.reviews, country_of_bean_origin == "Ecuador")

location<-group_by(company.ecuador, company_location)

summary<-summarize(location,
          mean = mean(rating, na.rm= TRUE),
          location = company_location,
          origin = country_of_bean_origin)

summary %>% arrange(desc(mean))

# A tibble: 219 × 4
# Groups:   company_location [25]
   company_location  mean location    origin 
   <chr>            <dbl> <chr>       <chr>  
 1 Australia         3.81 Australia   Ecuador
 2 Australia         3.81 Australia   Ecuador
 3 Australia         3.81 Australia   Ecuador
 4 Australia         3.81 Australia   Ecuador
 5 Switzerland       3.75 Switzerland Ecuador
 6 Switzerland       3.75 Switzerland Ecuador
 7 New Zealand       3.62 New Zealand Ecuador
 8 New Zealand       3.62 New Zealand Ecuador
 9 Hungary           3.5  Hungary     Ecuador
10 Hungary           3.5  Hungary     Ecuador
# ℹ 209 more rows

#Calculate the average rating across all country of origins for beans. Which top 3 countries have the highest ratings on average?

origin %>%
  group_by(country_of_bean_origin) %>%
    summarize(mean = mean(rating, na.rm= TRUE))%>% 
  arrange(desc(mean))

# A tibble: 62 × 2
   country_of_bean_origin  mean
   <chr>                  <dbl>
 1 Tobago                  3.62
 2 China                   3.5 
 3 Sao Tome & Principe     3.5 
 4 Solomon Islands         3.45
 5 Congo                   3.32
 6 Thailand                3.3 
 7 Cuba                    3.29
 8 Vietnam                 3.29
 9 Papua New Guinea        3.28
10 Madagascar              3.27
# ℹ 52 more rows
…
(by_percent)

# A tibble: 2,007 × 11
     ref company_manufacturer company_location review_date
   <dbl> <chr>                <chr>                  <dbl>
 1  2454 5150                 U.S.A.                  2019
 2  2458 5150                 U.S.A.                  2019
 3  2454 5150                 U.S.A.                  2019
 4  2546 5150                 U.S.A.                  2021
 5   797 A. Morin             France                  2012
 6   797 A. Morin             France                  2012
 7  1015 A. Morin             France                  2013
 8  1011 A. Morin             France                  2013
 9  1011 A. Morin             France                  2013
10  1015 A. Morin             France                  2013
# ℹ 1,997 more rows
# ℹ 7 more variables: country_of_bean_origin <chr>,
#   specific_bean_origin_or_bar_name <chr>, cocoa_percent <chr>,
#   ingredients <chr>, most_memorable_characteristics <chr>, rating <dbl>,
#   percent_choc <fct>
…
